2660
2667
2640
2629
2634
2637
2647
2630
2621
2628
2337
2272
2265
2279
2272
2271
2282
2283
2289
2264
2574
2564
2564
2563
2564
2561
2564
2564
2551
2562
11916
11804
12087
12020
10637
11905
11872
11973
11938
11930
12600
12401
13049
12594
11366
11661
12924
12831
12474
12166
