2773
2776
2793
2974
2808
2779
2786
2795
2814
2810
2801
2818
2914
2827
2835
2835
2814
2849
2809
2823
3210
3168
3201
3224
3237
3176
3239
3181
3236
3079
3932
3921
3994
3950
3954
3969
3909
3939
3903
3919
4958
4884
4918
4998
4999
4939
4973
4956
5016
4890
6764
6435
6536
6435
6388
6463
6539
6611
6344
6525
8458
8411
8483
8464
8478
8511
8403
8507
8473
8561
10749
10257
10238
10279
10393
10336
10334
10480
10502
10587
11644
10351
11850
11562
10329
11688
11685
11593
11824
11616
11402
11569
11495
11613
11546
11704
11539
11664
11391
10405
10652
11256
11251
11280
11369
11360
11394
11212
10569
11451
11104
11272
11266
11233
10426
11198
11156
11165
11243
10400
10943
10754
11007
11026
11005
10880
10818
11082
10424
10391
