930
798
1302
864
793
802
1302
1262
866
1287
2861
3054
3443
2970
2912
3700
3409
2903
3484
3501
12395
8086
12210
12240
11089
12759
13160
11296
12508
10088
40885
40842
40507
43649
41830
41531
42632
42461
41343
42887
75908
76738
76983
76900
76073
76688
76435
78766
78093
77397
