719
722
759
562
868
882
552
650
587
691
2883
1897
1779
2569
1613
2147
2461
2838
2383
2085
7585
5936
4466
5995
5842
7734
6105
4545
4230
4021
13641
20498
12338
14543
18775
11311
17250
11568
14572
19653
64581
46960
53631
54869
44794
59882
44426
53641
41748
50791
