873
797
1295
881
808
811
1320
1219
878
775
2922
2907
3503
3128
2519
3497
3160
1794
3028
2510
10752
9984
11982
9204
11333
8041
8127
11886
8485
11341
44660
43843
41107
42391
42421
40697
42438
43652
42936
42282
76428
76953
76851
76986
76348
76971
77079
76328
77050
77074
