553
569
567
559
592
686
593
747
523
542
1719
1499
1346
1399
1421
1503
1387
1352
1762
1736
3808
3384
4686
4175
3086
4539
4371
5648
2901
3072
24816
8100
12868
9282
15266
11684
11031
7268
10055
15989
25680
28046
23285
25494
31620
36309
33999
38162
38158
33155
