1138
1111
1117
1113
1125
1127
1127
1123
1126
1147
1961
1954
1942
1946
1944
1954
1946
1968
1957
1958
4300
4308
4302
4288
4301
4305
4298
4314
4295
4311
10677
10701
10668
10677
10573
10603
10650
10638
10599
10658
98085
63240
53825
56987
58348
59299
57570
50121
52806
52262
21117118519916520420720817920344943151350150051050048251650374678076074178177878876977676315201542149315161514152115061498150215032970298229312921295529422980296629732986