Counter at 140581124708352

Counter at 140581124708352

Counter at 140581124708352

Counter at 140581124708352

Counter at 140581124708352

Counter at 140581124708352

Counter at 140581124708352

Counter at 140581124708352

Counter at 140581124708352

Counter at 140581124708352

Counter at 140581124708352

Counter at 140581124708352

Counter at 140581124708352

Counter at 140581124708352

Counter at 140581124708352

Counter at 140581124708352

Counter at 140581124708352

Counter at 140581124708352

Counter at 140581124708352

Counter at 140581124708352

Counter at 140581124708352

Counter at 140581124708352

Counter at 140581124708352

Counter at 140581124708352

Counter at 140581124708352

Counter at 140581124708352

Counter at 140581124708352

Counter at 140581124708352

Counter at 140581124708352

Counter at 140581124708352

Counter at 140581124708352

Counter at 140581124708352

Counter at 140581124708352

Counter at 140581124708352

Counter at 140581124708352

Counter at 140581124708352

Counter at 140581124708352

Counter at 140581124708352

Counter at 140581124708352

Counter at 140581124708352

Counter at 140581124708352

Counter at 140581124708352

Counter at 140581124708352

Counter at 140581124708352

Counter at 140581124708352

Counter at 140581124708352

Counter at 140581124708352

Counter at 140581124708352

Counter at 140581124708352

Counter at 140581124708352

Counter at 140581124708352

Counter at 140581124708352

Counter at 140581124708352

Counter at 140581124708352

Counter at 140581124708352

Counter at 140581124708352

Counter at 140581124708352

Counter at 140581124708352

Counter at 140581124708352

Counter at 140581124708352

Counter at 140581124708352

Counter at 140581124708352

Counter at 140581124708352

Counter at 140581124708352

Counter at 140581124708352

Counter at 140581124708352

Counter at 140581124708352

Counter at 140581124708352

Counter at 140581124708352

Counter at 140581124708352

Counter at 140581124708352

Counter at 140581124708352

Counter at 140581124708352

Counter at 140581124708352

Counter at 140581124708352

Counter at 140581124708352

Counter at 140581124708352

Counter at 140581124708352

Counter at 140581124708352

Counter at 140581124708352

Counter at 140581124708352

Counter at 140581124708352

Counter at 140581124708352

Counter at 140581124708352

Counter at 140581124708352

Counter at 140581124708352

Counter at 140581124708352

Counter at 140581124708352

Counter at 140581124708352

Counter at 140581124708352

Counter at 140581124708352

Counter at 140581124708352

Counter at 140581124708352

Counter at 140581124708352

Counter at 140581124708352

Counter at 140581124708352

Counter at 140581124708352

Counter at 140581124708352

Counter at 140581124708352

Counter at 140581124708352

Counter at 140581124708352

Counter at 140581124708352

Counter at 140581124708352

Counter at 140581124708352

Counter at 140581124708352

Counter at 140581124708352

Counter at 140581124708352

Counter at 140581124708352

Counter at 140581124708352

Counter at 140581124708352

Counter at 140581124708352

Counter at 140581124708352

Counter at 140581124708352

Counter at 140581124708352

Counter at 140581124708352

Counter at 140581124708352

Counter at 140581124708352

Counter at 140581124708352

Counter at 140581124708352

Counter at 140581124708352

Counter at 140581124708352

Counter at 140581124708352

Counter at 140581124708352

Counter at 140581124708352

Counter at 140581124708352

Counter at 140581124708352

Counter at 140581124708352

Counter at 140581124712448

Counter at 140581124712448

Counter at 140581124712448

Counter at 140581124712448

Counter at 140581124712448

Counter at 140581124712448

1
