v7_msQ_10m,2306.625,2174.875,2581.5,11939.75,12206.125
v9_msQ_10m,2638.125,2276.625,2563.25,11919.75,12456.375

v7_msQ_10m_80_20,686.5,1135.875,2270.625,11794.5,9760
v9_msQ_10m_80_20,9825.625,5019.875,2833.375,11344.5,9842.75

v7_msQ_10m_80_20_threads8_20,2278.125,2824.5,3346.75,4339.125,5660.5,7220,8794.75,10507.25,11966.25,12004,12117.25,11623.375,11387
v9_msQ_10m_80_20_threads8_20,2795.125,2826.25,3204.125,3936.625,4953.875,6491.5,8473.125,10396,11495.375,11527.375,11221.75,11098.875,10857.125