120
87
87
92
88
89
89
80
68
69
122
127
119
122
119
120
116
118
121
119
232
225
222
229
228
228
224
222
217
223
1239
1129
1141
1187
1212
1292
1222
1182
1169
1193
932
951
943
970
949
933
946
934
966
931
