1014
810
807
817
841
828
818
814
1039
814
557
493
449
447
452
447
450
447
451
448
317
299
302
297
307
301
313
302
300
293
1097
1164
1185
1179
1062
1179
1063
1165
1164
1089
986
992
986
984
976
981
970
980
961
993
