9881
9864
9761
9824
9687
9793
9835
9904
9866
9901
6626
6631
6572
6542
6577
6516
6540
6585
6674
6544
5024
4976
5002
4984
4957
4964
4936
4998
5080
5016
4207
4236
4158
4146
4231
4316
4254
4166
4352
4323
3712
3677
3890
3558
3659
3717
3596
3604
3783
3541
3314
3338
3216
3260
3321
3241
3297
3291
3129
3228
2783
2883
2780
2781
2781
2916
2779
2795
2786
2781
2875
2807
2858
2852
2810
2807
2835
2797
2806
2855
3195
3220
3198
3247
3165
3219
3257
3187
3167
3222
3906
4038
3864
3883
3932
4021
4015
3985
3922
3978
4877
5183
5080
4907
4907
4883
5043
4926
4878
4902
6423
6365
6504
6456
6826
6318
6310
6605
6687
6669
8524
8495
8483
8473
8373
8614
8370
8259
8494
8598
11258
10487
10535
10511
10616
10868
10961
10284
10334
10130
11589
11872
11723
10462
10753
11639
11662
11523
10576
11480
11349
10765
10299
11414
11328
11695
11504
11451
11384
10566
11555
10610
11475
11316
11563
11410
11325
10479
11319
11300
11259
10598
11178
11336
10996
11254
11162
10486
11205
10445
10898
11039
10481
10864
11086
10925
10781
11107
11008
10473
10230
10912
10685
10824
10650
10280
10801
10841
10812
10184
10783
10486
10540
10668
10241
10731
10579
10781
10609
10716
10258
10749
10234
10520
9866
10724
10653
10677
10628
10707
10612
10561
10445
10584
10669
10731
10651
10189
10141
10602
10439
10108
10292
9838
10685
10423
9802
10619
10748
10691
10472
10395
10569
10529
10214
10520
9991
10175
10608
10701
9953
10537
10445
10455
10526
10525
10451
10524
10613
10353
10183
9826
11162
10407
10512
10464
10685
10382
10445
9892
10152
10485
10277
10121
10308
10064
10124
10308
10153
10153
9990
10031
10060
9987
10236
10218
10086
10192
10176
10346
9991
10654
10269
9928
10177
10700
9870
10365
10091
10232
9832
9906
10079
9739
10039
9761
9813
9801
9825
9901
